{
  "count": 82,
  "next": "https://swapi.dev/api/people/?page=2",
  "previous": null,
  "results": [
      {
          "name": "Luke Skywalker",
          "height": "172",
          "mass": "77",
          "hair_color": "blond",
          "skin_color": "fair",
          "eye_color": "blue",
          "birth_year": "19BBY",
          "gender": "male",
          "homeworld": "https://swapi.dev/api/planets/1/",
          "films": [
              "https://swapi.dev/api/films/1/",
              "https://swapi.dev/api/films/2/",
              "https://swapi.dev/api/films/3/",
              "https://swapi.dev/api/films/6/"
          ],
          "species": [],
          "vehicles": [
              "https://swapi.dev/api/vehicles/14/",
              "https://swapi.dev/api/vehicles/30/"
          ],
          "starships": [
              "https://swapi.dev/api/starships/12/",
              "https://swapi.dev/api/starships/22/"
          ],
          "created": "2014-12-09T13:50:51.644000Z",
          "edited": "2014-12-20T21:17:56.891000Z",
          "url": "https://swapi.dev/api/people/1/"
      },
      {
          "name": "R5-D4",
          "height": "97",
          "mass": "32",
          "hair_color": "n/a",
          "skin_color": "white, red",
          "eye_color": "red",
          "birth_year": "unknown",
          "gender": "n/a",
          "homeworld": "https://swapi.dev/api/planets/1/",
          "films": [
              "https://swapi.dev/api/films/1/"
          ],
          "species": [
              "https://swapi.dev/api/species/2/"
          ],
          "vehicles": [],
          "starships": [],
          "created": "2014-12-10T15:57:50.959000Z",
          "edited": "2014-12-20T21:17:50.321000Z",
          "url": "https://swapi.dev/api/people/8/"
      },
    
      {
          "name": "Obi-Wan Kenobi",
          "height": "182",
          "mass": "77",
          "hair_color": "auburn, white",
          "skin_color": "fair",
          "eye_color": "blue-gray",
          "birth_year": "57BBY",
          "gender": "male",
          "homeworld": "https://swapi.dev/api/planets/20/",
          "films": [
              "https://swapi.dev/api/films/1/",
              "https://swapi.dev/api/films/2/",
              "https://swapi.dev/api/films/3/",
              "https://swapi.dev/api/films/4/",
              "https://swapi.dev/api/films/5/",
              "https://swapi.dev/api/films/6/"
          ],
          "species": [],
          "vehicles": [
              "https://swapi.dev/api/vehicles/38/"
          ],
          "starships": [
              "https://swapi.dev/api/starships/48/",
              "https://swapi.dev/api/starships/59/",
              "https://swapi.dev/api/starships/64/",
              "https://swapi.dev/api/starships/65/",
              "https://swapi.dev/api/starships/74/"
          ],
          "created": "2014-12-10T16:16:29.192000Z",
          "edited": "2014-12-20T21:17:50.325000Z",
          "url": "https://swapi.dev/api/people/10/"
      }
  ]
}